1690901990.569868 : FEM 14
8.199875e-01, 8.377766e-01, 
5.254109e-02, 5.379310e-02, 
-1.533751e+02 -2.849376e+01 -1.519316e+02 -2.950247e+01 
-1.261534e+02 -2.832841e+01 -1.247099e+02 -2.970481e+01 
-9.893172e+01 -2.813834e+01 -9.748823e+01 -2.948298e+01 
-7.171004e+01 -2.781205e+01 -7.026655e+01 -2.923451e+01 
-4.448836e+01 -2.810115e+01 -4.304487e+01 -2.943934e+01 
-1.726668e+01 -1.413792e+01 -1.582319e+01 -1.315047e+01 
9.955001e+00 8.923922e+00 1.139848e+01 1.071815e+01 
3.717668e+01 3.099634e+01 3.862016e+01 3.310483e+01 
6.439836e+01 5.630775e+01 6.584184e+01 5.873927e+01 
9.162004e+01 7.666470e+01 9.306352e+01 7.977151e+01 
1.188417e+02 9.615141e+01 1.202852e+02 9.975921e+01 
1.460634e+02 1.226817e+02 1.475069e+02 1.268663e+02 
1.732851e+02 1.424394e+02 1.747286e+02 1.471064e+02 
2.005068e+02 1.654936e+02 2.019502e+02 1.706005e+02 
2.277284e+02 1.874985e+02 2.291719e+02 1.931692e+02 
2.549501e+02 2.076914e+02 2.563936e+02 2.139185e+02 
2.821718e+02 2.287508e+02 2.836153e+02 2.351963e+02 
3.093935e+02 2.516850e+02 3.108370e+02 2.587707e+02 
3.366152e+02 2.732374e+02 3.380586e+02 2.809104e+02 
3.638368e+02 2.954067e+02 3.652803e+02 3.033021e+02 
3.910585e+02 3.177493e+02 3.925020e+02 3.260973e+02 
4.182802e+02 3.434778e+02 4.197237e+02 3.526114e+02 
4.455019e+02 3.618865e+02 4.469454e+02 3.713390e+02 
4.727236e+02 3.871126e+02 4.741670e+02 3.969358e+02 
4.999452e+02 4.123483e+02 5.013887e+02 4.230842e+02 
5.271669e+02 4.331681e+02 5.286104e+02 4.442372e+02 
5.543886e+02 4.528920e+02 5.558321e+02 4.643690e+02 
5.816103e+02 4.774315e+02 5.830538e+02 4.891973e+02 
6.088320e+02 5.003658e+02 6.102754e+02 5.128844e+02 
6.360536e+02 5.215221e+02 6.374971e+02 5.343767e+02 
6.632753e+02 5.454382e+02 6.647188e+02 5.587027e+02 
6.904970e+02 5.695265e+02 6.919405e+02 5.834998e+02 
7.177187e+02 5.930908e+02 7.191622e+02 6.076086e+02 
7.449404e+02 6.099680e+02 7.463838e+02 6.249319e+02 
7.721620e+02 6.323247e+02 7.736055e+02 6.476429e+02 
7.993837e+02 6.554841e+02 8.008272e+02 6.713490e+02 
8.266054e+02 6.787523e+02 8.280489e+02 6.950449e+02 
8.538271e+02 6.996880e+02 8.552706e+02 7.164351e+02 
8.810488e+02 7.217659e+02 8.824922e+02 7.389670e+02 
9.082704e+02 7.451878e+02 9.097139e+02 7.629182e+02 
9.354921e+02 7.676438e+02 9.369356e+02 7.859345e+02 
9.627138e+02 7.897494e+02 9.641573e+02 8.084234e+02 
9.899355e+02 8.121400e+02 9.913790e+02 8.310113e+02 
1.017157e+03 8.340968e+02 1.018601e+03 8.536156e+02 
1.044379e+03 8.536816e+02 1.045822e+03 8.736202e+02 
1.071601e+03 8.769258e+02 1.073044e+03 8.973193e+02 
1.098822e+03 9.009901e+02 1.100266e+03 9.222180e+02 
1.126044e+03 9.214883e+02 1.127487e+03 9.430338e+02 
1.153266e+03 9.443226e+02 1.154709e+03 9.662025e+02 
1.180487e+03 9.664163e+02 1.181931e+03 9.888769e+02 
1.207709e+03 9.886929e+02 1.209152e+03 1.011584e+03 
1.234931e+03 1.012157e+03 1.236374e+03 1.035408e+03 
1.262152e+03 1.033402e+03 1.263596e+03 1.057158e+03 
1.289374e+03 1.056402e+03 1.290817e+03 1.080809e+03 
1.316596e+03 1.078026e+03 1.318039e+03 1.095407e+03 
