Ref,Val,Package,PosX,PosY,Rot,Side
"C801","100nF","C_0402_1005Metric",45.050000,-9.025000,180.000000,bottom
"C802","100nF","C_0402_1005Metric",45.050000,-9.975000,180.000000,bottom
"C803","47uF","C_0805_2012Metric",49.525000,-46.975000,90.000000,bottom
"C804","10uF","C_0402_1005Metric",56.050000,-48.350000,-90.000000,bottom
"C805","10uF","C_0402_1005Metric",42.850000,-51.850000,-135.000000,bottom
"C806","470nF","C_0402_1005Metric",54.950000,-51.200000,0.000000,bottom
"C807","470nF","C_0402_1005Metric",51.850000,-61.000000,45.000000,bottom
"C808","470nF","C_0402_1005Metric",47.600000,-44.925000,90.000000,bottom
"C809","470nF","C_0402_1005Metric",48.475000,-54.150000,0.000000,bottom
"C810","47uF","C_0805_2012Metric",64.575000,-53.225000,90.000000,bottom
"C811","10uF","C_0402_1005Metric",48.525000,-59.150000,180.000000,bottom
"C812","10uF","C_0402_1005Metric",58.825000,-55.050000,45.000000,bottom
"C813","470nF","C_0402_1005Metric",60.500000,-65.275000,180.000000,bottom
"C814","470nF","C_0402_1005Metric",62.000000,-52.625000,-90.000000,bottom
"C815","470nF","C_0402_1005Metric",46.600000,-58.000000,-45.000000,bottom
"C816","470nF","C_0402_1005Metric",61.925000,-62.375000,0.000000,bottom
"C817","47uF","C_0805_2012Metric",57.425000,-45.100000,180.000000,bottom
"C818","10uF","C_0402_1005Metric",59.475000,-67.075000,-45.000000,bottom
"C819","10uF","C_0402_1005Metric",58.025000,-50.175000,-90.000000,bottom
"C820","470nF","C_0402_1005Metric",59.400000,-51.875000,180.000000,bottom
"C821","470nF","C_0402_1005Metric",59.825000,-55.950000,-135.000000,bottom
"C822","470nF","C_0402_1005Metric",58.895000,-58.425000,180.000000,bottom
"C823","470nF","C_0402_1005Metric",63.000000,-60.325000,180.000000,bottom
"C901","10uF","C_0402_1005Metric",52.750000,-57.050000,135.000000,bottom
"C903","100uF","C_1206_3216Metric",54.400000,-48.400000,-90.000000,bottom
"C904","470nF","C_0402_1005Metric",57.125000,-41.550000,0.000000,bottom
"C1001","100nF","C_0402_1005Metric",19.675000,-44.525000,90.000000,bottom
"C1002","100nF","C_0402_1005Metric",17.875000,-44.525000,90.000000,bottom
"C1003","10uF","C_0402_1005Metric",13.375000,-41.800000,90.000000,bottom
"C1004","10uF","C_0402_1005Metric",49.700000,-63.100000,-45.000000,bottom
"C1005","10uF","C_0402_1005Metric",49.750000,-65.125000,135.000000,bottom
"C1006","100nF","C_0402_1005Metric",47.600000,-63.475000,0.000000,bottom
"C1007","100nF","C_0402_1005Metric",46.725000,-66.075000,135.000000,bottom
"C1008","100nF","C_0402_1005Metric",41.800000,-62.425000,135.000000,bottom
"C1009","100nF","C_0402_1005Metric",47.500000,-67.750000,0.000000,bottom
"C1101","100uF","C_1206_3216Metric",75.575000,-61.700000,0.000000,bottom
"C1102","330uF","C_1210_3225Metric",39.525000,-55.925000,-90.000000,bottom
"C1103","100uF","C_1206_3216Metric",42.300000,-56.575000,-90.000000,bottom
"C1104","10uF","C_0402_1005Metric",50.975000,-59.575000,-90.000000,bottom
"C1105","470nF","C_0402_1005Metric",54.200000,-52.375000,0.000000,bottom
"C1106","10uF","C_0402_1005Metric",58.575000,-59.950000,-45.000000,bottom
"C1107","10uF","C_0402_1005Metric",54.650000,-59.050000,135.000000,bottom
"C1108","100nF","C_0402_1005Metric",56.825000,-57.000000,-135.000000,bottom
"C1109","10uF","C_0402_1005Metric",55.825000,-54.225000,-45.000000,bottom
"C1110","470nF","C_0402_1005Metric",55.550000,-64.300000,45.000000,bottom
"C1111","470nF","C_0402_1005Metric",50.675000,-53.075000,135.000000,bottom
"C1112","470nF","C_0402_1005Metric",54.550000,-55.950000,-45.000000,bottom
"C1113","470nF","C_0402_1005Metric",57.225000,-52.400000,180.000000,bottom
"C1114","470nF","C_0402_1005Metric",50.850000,-56.000000,-135.000000,bottom
"C1201","100nF","C_0402_1005Metric",15.400000,-79.625000,-90.000000,bottom
"C1202","100nF","C_0402_1005Metric",20.275000,-79.625000,-90.000000,bottom
"C1203","10uF","C_0402_1005Metric",19.325000,-79.625000,-90.000000,bottom
"C1204","100nF","C_0402_1005Metric",19.809999,-81.750000,0.000000,bottom
"C1314","10uF","C_0402_1005Metric",13.800000,-98.050000,180.000000,bottom
"C1319","10uF","C_0402_1005Metric",12.825000,-95.000000,90.000000,bottom
"C1326","100nF","C_0402_1005Metric",96.325000,-67.975000,180.000000,bottom
"J102","ERNI-154807","ERNI-154807",101.200000,-82.000000,-90.000000,bottom
"J301","ERNI-154807","ERNI-154807",5.000000,-32.000000,90.000000,bottom
"J302","ERNI-154807","ERNI-154807",5.000000,-82.000000,90.000000,bottom
"J401","ERNI-154807","ERNI-154807",30.750000,-82.000000,-90.000000,bottom
"J402","ERNI-154807","ERNI-154807",30.750000,-32.000000,-90.000000,bottom
"J501","ERNI-154807","ERNI-154807",41.000000,-32.000000,90.000000,bottom
"J502","ERNI-154807","ERNI-154807",41.000000,-82.000000,90.000000,bottom
"J601","ERNI-154807","ERNI-154807",66.750000,-82.000000,-90.000000,bottom
"J602","ERNI-154807","ERNI-154807",66.750000,-32.000000,-90.000000,bottom
"J701","ERNI-154807","ERNI-154807",77.000000,-32.000000,90.000000,bottom
"J702","ERNI-154807","ERNI-154807",77.000000,-82.000000,90.000000,bottom
"L1201","1uH","L_0603_1608Metric",16.625000,-80.175000,-90.000000,bottom
"L1202","1uH","L_0603_1608Metric",18.100000,-80.175000,-90.000000,bottom
"R801","100","R_0402_1005Metric",57.700000,-61.925000,90.000000,bottom
"R802","100","R_0402_1005Metric",59.225000,-53.375000,0.000000,bottom
"R803","100","R_0402_1005Metric",53.200000,-64.625000,-135.000000,bottom
"R804","100","R_0402_1005Metric",59.725000,-63.125000,-135.000000,bottom
"R901","4.7k","R_0402_1005Metric",54.875000,-62.275000,-45.000000,bottom
"R902","4.7k","R_0402_1005Metric",53.800000,-61.075000,-135.000000,bottom
"R903","330","R_0402_1005Metric",56.475000,-62.325000,-90.000000,bottom
"R906","2.4k","R_0402_1005Metric",51.775000,-52.150000,-45.000000,bottom
"R1001","DNP","R_0402_1005Metric",16.375000,-35.650000,0.000000,bottom
"R1002","DNP","R_0402_1005Metric",18.250000,-35.650000,0.000000,bottom
"R1003","100","R_0402_1005Metric",50.225000,-67.425000,180.000000,bottom
"R1201","4.7k","R_0402_1005Metric",52.525000,-50.650000,90.000000,bottom
"R1202","4.7k","R_0402_1005Metric",46.725000,-49.000000,90.000000,bottom
"R1203","4.7k","R_0402_1005Metric",49.550000,-50.250000,-90.000000,bottom
"R1204","4.7k","R_0402_1005Metric",47.000000,-52.950000,-90.000000,bottom
"R1205","4.7k","R_0402_1005Metric",46.000000,-51.900000,-90.000000,bottom
"R1311","10k","R_0402_1005Metric",13.800000,-95.000000,90.000000,bottom
"R1315","10k","R_0402_1005Metric",96.775000,-66.550000,90.000000,bottom
"R1316","10k","R_0402_1005Metric",92.200000,-69.675000,0.000000,bottom
"R1318","10k","R_0402_1005Metric",92.200000,-70.650000,0.000000,bottom
"R1319","10k","R_0402_1005Metric",92.200000,-71.625000,0.000000,bottom
"U1001","SI590BA-B","Si590",17.500000,-40.000000,0.000000,bottom
"U1304","LP3962","TO-263-5_TabPin3",87.150000,-52.825000,90.000000,bottom
"U1307","MCP1825T-3302E","SOT-223-6_TabPin3",19.250000,-96.775000,0.000000,bottom
"U1309","LM3880","SOT-23-6",95.225000,-70.400000,180.000000,bottom
"C201","100nF","C_0402_1005Metric",94.700000,-19.375000,-90.000000,top
"C202","100nF","C_0402_1005Metric",94.725000,-10.525000,180.000000,top
"C203","100nF","C_0402_1005Metric",94.730000,-9.590000,180.000000,top
"C204","10uF","C_0402_1005Metric",93.725000,-19.375000,-90.000000,top
"C205","100nF","C_0402_1005Metric",84.575000,-10.125000,90.000000,top
"C206","10uF","C_0402_1005Metric",90.100000,-16.200000,0.000000,top
"C301","100nF","C_0402_1005Metric",8.100000,-7.550000,90.000000,top
"C401","100nF","C_0402_1005Metric",33.850000,-7.625000,90.000000,top
"C501","100nF","C_0402_1005Metric",44.100000,-7.400000,90.000000,top
"C601","100nF","C_0402_1005Metric",69.850000,-7.575000,90.000000,top
"C701","100nF","C_0402_1005Metric",80.100000,-7.575000,90.000000,top
"C902","100nF","C_0402_1005Metric",56.850000,-39.350000,0.000000,top
"C1301","10uF","C_0402_1005Metric",91.550000,-70.155000,90.000000,top
"C1302","10uF","C_0402_1005Metric",91.600000,-66.175000,90.000000,top
"C1303","10uF","C_0402_1005Metric",91.550000,-74.175000,90.000000,top
"C1304","100uF","C_1206_3216Metric",90.350000,-60.350000,0.000000,top
"C1305","100nF","C_0402_1005Metric",92.000000,-72.775000,0.000000,top
"C1306","100nF","C_0402_1005Metric",92.000000,-68.750000,0.000000,top
"C1307","100nF","C_0402_1005Metric",92.050000,-64.775000,0.000000,top
"C1308","10uF","C_0402_1005Metric",83.050000,-74.975000,180.000000,top
"C1309","10uF","C_0402_1005Metric",83.025000,-70.975000,180.000000,top
"C1310","10uF","C_0402_1005Metric",82.975000,-66.975000,180.000000,top
"C1311","100uF","C_1206_3216Metric",83.975000,-60.375000,180.000000,top
"C1312","10uF","C_0402_1005Metric",91.575000,-78.175000,90.000000,top
"C1313","10uF","C_0402_1005Metric",91.575000,-82.175000,90.000000,top
"C1315","100nF","C_0402_1005Metric",92.025000,-76.775000,0.000000,top
"C1316","100nF","C_0402_1005Metric",92.025000,-80.775000,0.000000,top
"C1317","10uF","C_0402_1005Metric",82.975000,-78.975000,180.000000,top
"C1318","10uF","C_0402_1005Metric",83.000000,-82.950000,180.000000,top
"C1320","100nF","C_0402_1005Metric",92.575000,-50.775000,0.000000,top
"C1321","1000uF","CP_Radial_D8.0mm_P3.50mm",99.847349,-54.500000,0.000000,top
"C1322","100nF","C_0402_1005Metric",82.875000,-51.275000,90.000000,top
"C1323","10uF","C_0603_1608Metric",95.775000,-50.050000,0.000000,top
"C1324","10uF","C_0603_1608Metric",82.525000,-26.975000,90.000000,top
"C1325","100nF","C_0402_1005Metric",92.475000,-23.925000,180.000000,top
"C1327","100uF","C_1206_3216Metric",85.925000,-19.450000,180.000000,top
"C1328","47uF","C_0805_2012Metric",81.625000,-54.125000,180.000000,top
"C1329","47uF","C_0805_2012Metric",93.400000,-54.150000,0.000000,top
"D1001","LED","LED_0402_1005Metric",60.500000,-35.000000,-90.000000,top
"D1002","LED","LED_0402_1005Metric",59.525000,-35.000000,-90.000000,top
"D1003","LED","LED_0402_1005Metric",58.550000,-35.000000,-90.000000,top
"D1004","LED","LED_0402_1005Metric",57.575000,-35.000000,-90.000000,top
"J101","Conn_01x04","Molex-172310-3104",85.650000,-38.000000,90.000000,top
"J201","Conn_01x02","PinHeader_1x02_P2.54mm_Vertical",98.250000,-2.310000,0.000000,top
"J202","Conn_01x03","PinHeader_1x03_P2.54mm_Vertical",91.000000,-2.310000,0.000000,top
"J203","Conn_01x02","PinHeader_1x02_P2.54mm_Vertical",94.620000,-2.310000,0.000000,top
"J901","Conn_02x07","PinHeader_2x07_P2.00mm_Vertical_SMD",54.275000,-86.060000,90.000000,top
"J1001","Conn_02x03","PinHeader_2x03_P2.54mm_Vertical_SMD",54.600000,-24.400000,0.000000,top
"J1201","SFP+","SFP+",17.800000,-81.925000,90.000000,top
"R201","1k","R_0402_1005Metric",100.200000,-15.725000,90.000000,top
"R202","1k","R_0402_1005Metric",100.200000,-13.850000,90.000000,top
"R203","100","R_0402_1005Metric",90.800000,-12.100000,90.000000,top
"R204","100","R_0402_1005Metric",90.800000,-14.100000,-90.000000,top
"R301","100","R_0402_1005Metric",6.000000,-6.900000,180.000000,top
"R401","100","R_0402_1005Metric",31.750000,-6.900000,180.000000,top
"R501","100","R_0402_1005Metric",42.000000,-6.900000,180.000000,top
"R601","100","R_0402_1005Metric",67.750000,-6.900000,180.000000,top
"R701","100","R_0402_1005Metric",78.000000,-6.900000,180.000000,top
"R904","8.66k","R_0402_1005Metric",55.725000,-43.950000,0.000000,top
"R905","8.06k","R_0402_1005Metric",57.625000,-43.950000,0.000000,top
"R1004","DNP","R_0402_1005Metric",45.375000,-42.500000,-90.000000,top
"R1005","DNP","R_0402_1005Metric",46.325000,-42.500000,-90.000000,top
"R1006","DNP","R_0402_1005Metric",47.275000,-42.500000,-90.000000,top
"R1007","DNP","R_0402_1005Metric",48.225000,-42.500000,-90.000000,top
"R1008","1k","R_0402_1005Metric",60.500000,-32.825000,-90.000000,top
"R1009","1k","R_0402_1005Metric",59.525000,-32.825000,-90.000000,top
"R1010","1k","R_0402_1005Metric",58.550000,-32.825000,-90.000000,top
"R1011","1k","R_0402_1005Metric",57.575000,-32.825000,-90.000000,top
"R1301","470","R_0402_1005Metric",83.475000,-73.575000,90.000000,top
"R1302","1.07k","R_0402_1005Metric",82.525000,-73.575000,-90.000000,top
"R1303","2.2k","R_0402_1005Metric",83.425000,-69.575000,90.000000,top
"R1304","1.4k","R_0402_1005Metric",82.475000,-69.575000,-90.000000,top
"R1305","1k","R_0402_1005Metric",83.400000,-65.550000,90.000000,top
"R1306","1.4k","R_0402_1005Metric",82.450000,-65.550000,-90.000000,top
"R1307","470","R_0402_1005Metric",83.400000,-77.575000,90.000000,top
"R1308","1.07k","R_0402_1005Metric",82.450000,-77.575000,-90.000000,top
"R1309","1k","R_0402_1005Metric",83.450000,-81.550000,90.000000,top
"R1310","1.4k","R_0402_1005Metric",82.500000,-81.550000,-90.000000,top
"R1312","250k","R_0402_1005Metric",92.575000,-48.300000,0.000000,top
"R1313","22k","R_0402_1005Metric",82.875000,-49.400000,-90.000000,top
"R1314","12k","R_0402_1005Metric",92.575000,-49.250000,0.000000,top
"R1317","19.1k","R_0402_1005Metric",88.750000,-20.125000,90.000000,top
"U201","SI590B","Si590",96.024999,-14.850000,90.000000,top
"U202","SI53342","QFN-24-1EP_4x4mm_P0.5mm_EP2.6x2.6mm",87.700000,-13.100000,90.000000,top
"U301","SI53342","QFN-24-1EP_4x4mm_P0.5mm_EP2.6x2.6mm",5.000000,-10.000000,180.000000,top
"U401","SI53342","QFN-24-1EP_4x4mm_P0.5mm_EP2.6x2.6mm",30.750000,-10.000000,180.000000,top
"U501","SI53342","QFN-24-1EP_4x4mm_P0.5mm_EP2.6x2.6mm",41.000000,-10.000000,180.000000,top
"U601","SI53342","QFN-24-1EP_4x4mm_P0.5mm_EP2.6x2.6mm",66.750000,-10.000000,180.000000,top
"U701","SI53342","QFN-24-1EP_4x4mm_P0.5mm_EP2.6x2.6mm",77.000000,-10.000000,180.000000,top
"U801","XC7K70T-FBG484","BGA-484_23.0x23.0mm_Layout22x22_P1.0mm",53.725000,-57.125000,90.000000,top
"U901","ST715MR","SOT-23-5",56.850000,-41.550000,180.000000,top
"U902","IS25LP032","SOIC-8_3.9x4.9mm_P1.27mm",52.000000,-40.000000,-90.000000,top
"U1301","MIC47100","MSOP-8-1EP_3x3mm_P0.65mm_EP1.68x1.88mm",87.500000,-74.000000,180.000000,top
"U1302","MIC47100","MSOP-8-1EP_3x3mm_P0.65mm_EP1.68x1.88mm",87.500000,-70.000000,180.000000,top
"U1303","MIC47100","MSOP-8-1EP_3x3mm_P0.65mm_EP1.68x1.88mm",87.500000,-66.000000,180.000000,top
"U1305","MIC47100","MSOP-8-1EP_3x3mm_P0.65mm_EP1.68x1.88mm",87.500000,-78.000000,180.000000,top
"U1306","MIC47100","MSOP-8-1EP_3x3mm_P0.65mm_EP1.68x1.88mm",87.500000,-82.000000,180.000000,top
"U1308","LTM4622","BGA-25_6.35x6.35mm_Layout5x5_P1.27mm",87.500000,-51.000000,90.000000,top
"U1310","LTM4625","BGA-25_6.35x6.35mm_Layout5x5_P1.27mm",87.430000,-25.200000,-90.000000,top
