
*** Running vivado
    with args -log c_shift_ram_0.vds -m64 -product Vivado -mode batch -messageDb vivado.pb -notrace -source c_shift_ram_0.tcl


****** Vivado v2024.1 (64-bit)
  **** SW Build 5076996 on Wed May 22 18:36:09 MDT 2024
  **** IP Build 5075265 on Wed May 22 21:45:21 MDT 2024
  **** SharedData Build 5076995 on Wed May 22 18:29:18 MDT 2024
  **** Start of session at: Fri Jul 12 09:10:04 2024
    ** Copyright 1986-2022 Xilinx, Inc. All Rights Reserved.
    ** Copyright 2022-2024 Advanced Micro Devices, Inc. All Rights Reserved.

source c_shift_ram_0.tcl -notrace
WARNING: [Common 17-1361] You have specified a new message control rule that is equivalent to an existing rule with attributes ' -id {Labtools 27-2269}  -string {{ERROR: [Labtools 27-2269] No devices detected on target localhost:3121/xilinx_tcf/Xilinx/000018cd399501.
Check cable connectivity and that the target board is powered up then
use the disconnect_hw_server and connect_hw_server to re-register this hardware target.}}  -suppress '. The existing rule will be replaced.
WARNING: [Common 17-1361] You have specified a new message control rule that is equivalent to an existing rule with attributes ' -id {Vivado 12-1790}  -string {{CRITICAL WARNING: [Vivado 12-1790] Evaluation License Warning: This design contains one or more IP cores that use separately licensed features. If the design has been configured to make use of evaluation features, please note that these features will cease to function after a certain period of time. Please consult the core datasheet to determine whether the core which you have configured will be affected. Evaluation features should NOT be used in production systems.

Evaluation cores found in this design:
    IP core 'tri_mode_ethernet_mac_0' (tri_mode_ethernet_mac_0_block) was generated with multiple features:
        IP feature 'eth_avb_endpoint@2015.04' was enabled using a unknown license.
        IP feature 'tri_mode_eth_mac@2015.04' was enabled using a hardware_evaluation license.

Resolution: If a new IP Core license was added, in order for the new license to be picked up, the current netlist needs to be updated by resetting and re-generating the IP output products before bitstream generation.}}  -suppress '. The existing rule will be replaced.
create_project: Time (s): cpu = 00:00:10 ; elapsed = 00:00:11 . Memory (MB): peak = 1584.465 ; gain = 21.836 ; free physical = 1012 ; free virtual = 49859
INFO: [IP_Flow 19-6924] IPCACHE: Running cache check for IP inst: c_shift_ram_0
Command: synth_design -top c_shift_ram_0 -part xc7k70tfbg484-2 -incremental_mode off -mode out_of_context
Starting synth_design
Attempting to get a license for feature 'Synthesis' and/or device 'xc7k70t'
INFO: [Device 21-403] Loading part xc7k70tfbg484-2
INFO: [Device 21-9227] Part: xc7k70tfbg484-2 does not have CEAM library.
INFO: [Synth 8-7079] Multithreading enabled for synth_design using a maximum of 4 processes.
INFO: [Synth 8-7078] Launching helper process for spawning children vivado processes
INFO: [Synth 8-7075] Helper process launched with PID 50486
---------------------------------------------------------------------------------
Starting RTL Elaboration : Time (s): cpu = 00:00:07 ; elapsed = 00:00:08 . Memory (MB): peak = 2346.023 ; gain = 411.746 ; free physical = 170 ; free virtual = 47921
---------------------------------------------------------------------------------
INFO: [Synth 8-638] synthesizing module 'c_shift_ram_0' [/data/cms/ecal/fe/SAFE/firmware/SAFE.gen/sources_1/ip/c_shift_ram_0/synth/c_shift_ram_0.vhd:67]
	Parameter C_XDEVICEFAMILY bound to: kintex7 - type: string 
	Parameter C_VERBOSITY bound to: 0 - type: integer 
	Parameter C_WIDTH bound to: 160 - type: integer 
	Parameter C_DEPTH bound to: 256 - type: integer 
	Parameter C_ADDR_WIDTH bound to: 4 - type: integer 
	Parameter C_SHIFT_TYPE bound to: 0 - type: integer 
	Parameter C_OPT_GOAL bound to: 0 - type: integer 
	Parameter C_AINIT_VAL bound to: 0 - type: string 
	Parameter C_SINIT_VAL bound to: 0000000000000000000000000000000000000000000000000000000000000000000000000000000000000000000000000000000000000000000000000000000000000000000000000000000000000000 - type: string 
	Parameter C_DEFAULT_DATA bound to: 0 - type: string 
	Parameter C_HAS_A bound to: 0 - type: integer 
	Parameter C_HAS_CE bound to: 0 - type: integer 
	Parameter C_REG_LAST_BIT bound to: 1 - type: integer 
	Parameter C_SYNC_PRIORITY bound to: 1 - type: integer 
	Parameter C_SYNC_ENABLE bound to: 0 - type: integer 
	Parameter C_HAS_SCLR bound to: 0 - type: integer 
	Parameter C_HAS_SSET bound to: 0 - type: integer 
	Parameter C_HAS_SINIT bound to: 0 - type: integer 
	Parameter C_MEM_INIT_FILE bound to: no_coe_file_loaded - type: string 
	Parameter C_ELABORATION_DIR bound to: ./ - type: string 
	Parameter C_READ_MIF bound to: 0 - type: integer 
	Parameter C_PARSER_TYPE bound to: 0 - type: integer 
INFO: [Synth 8-3491] module 'c_shift_ram_v12_0_17' declared at '/data/cms/ecal/fe/SAFE/firmware/SAFE.gen/sources_1/ip/c_shift_ram_0/hdl/c_shift_ram_v12_0_vh_rfs.vhd:2571' bound to instance 'U0' of component 'c_shift_ram_v12_0_17' [/data/cms/ecal/fe/SAFE/firmware/SAFE.gen/sources_1/ip/c_shift_ram_0/synth/c_shift_ram_0.vhd:122]
INFO: [Synth 8-256] done synthesizing module 'c_shift_ram_0' (0#1) [/data/cms/ecal/fe/SAFE/firmware/SAFE.gen/sources_1/ip/c_shift_ram_0/synth/c_shift_ram_0.vhd:67]
WARNING: [Synth 8-7129] Port a[3] in module c_shift_ram_v12_0_17_legacy is either unconnected or has no load
WARNING: [Synth 8-7129] Port a[2] in module c_shift_ram_v12_0_17_legacy is either unconnected or has no load
WARNING: [Synth 8-7129] Port a[1] in module c_shift_ram_v12_0_17_legacy is either unconnected or has no load
WARNING: [Synth 8-7129] Port a[0] in module c_shift_ram_v12_0_17_legacy is either unconnected or has no load
WARNING: [Synth 8-7129] Port ce in module c_shift_ram_v12_0_17_legacy is either unconnected or has no load
WARNING: [Synth 8-7129] Port aclr in module c_shift_ram_v12_0_17_legacy is either unconnected or has no load
WARNING: [Synth 8-7129] Port aset in module c_shift_ram_v12_0_17_legacy is either unconnected or has no load
WARNING: [Synth 8-7129] Port ainit in module c_shift_ram_v12_0_17_legacy is either unconnected or has no load
WARNING: [Synth 8-7129] Port sclr in module c_shift_ram_v12_0_17_legacy is either unconnected or has no load
WARNING: [Synth 8-7129] Port sset in module c_shift_ram_v12_0_17_legacy is either unconnected or has no load
WARNING: [Synth 8-7129] Port sinit in module c_shift_ram_v12_0_17_legacy is either unconnected or has no load
---------------------------------------------------------------------------------
Finished RTL Elaboration : Time (s): cpu = 00:00:16 ; elapsed = 00:00:17 . Memory (MB): peak = 2571.133 ; gain = 636.855 ; free physical = 272 ; free virtual = 47578
---------------------------------------------------------------------------------
---------------------------------------------------------------------------------
Start Handling Custom Attributes
---------------------------------------------------------------------------------
---------------------------------------------------------------------------------
Finished Handling Custom Attributes : Time (s): cpu = 00:00:16 ; elapsed = 00:00:17 . Memory (MB): peak = 2571.133 ; gain = 636.855 ; free physical = 272 ; free virtual = 47576
---------------------------------------------------------------------------------
---------------------------------------------------------------------------------
Finished RTL Optimization Phase 1 : Time (s): cpu = 00:00:16 ; elapsed = 00:00:17 . Memory (MB): peak = 2571.133 ; gain = 636.855 ; free physical = 272 ; free virtual = 47576
---------------------------------------------------------------------------------
Netlist sorting complete. Time (s): cpu = 00:00:00.23 ; elapsed = 00:00:00.23 . Memory (MB): peak = 2571.133 ; gain = 0.000 ; free physical = 275 ; free virtual = 47580

Processing XDC Constraints
Initializing timing engine
Parsing XDC File [/data/cms/ecal/fe/SAFE/firmware/SAFE.gen/sources_1/ip/c_shift_ram_0/c_shift_ram_0_ooc.xdc] for cell 'U0'
Finished Parsing XDC File [/data/cms/ecal/fe/SAFE/firmware/SAFE.gen/sources_1/ip/c_shift_ram_0/c_shift_ram_0_ooc.xdc] for cell 'U0'
Parsing XDC File [/data/cms/ecal/fe/SAFE/firmware/SAFE.runs/c_shift_ram_0_synth_1/dont_touch.xdc]
Finished Parsing XDC File [/data/cms/ecal/fe/SAFE/firmware/SAFE.runs/c_shift_ram_0_synth_1/dont_touch.xdc]
Completed Processing XDC Constraints

Netlist sorting complete. Time (s): cpu = 00:00:00 ; elapsed = 00:00:00.01 . Memory (MB): peak = 2667.180 ; gain = 0.000 ; free physical = 281 ; free virtual = 47588
Constraint Validation Runtime : Time (s): cpu = 00:00:00.84 ; elapsed = 00:00:00.46 . Memory (MB): peak = 2667.180 ; gain = 0.000 ; free physical = 272 ; free virtual = 47579
INFO: [Designutils 20-5008] Incremental synthesis strategy off
---------------------------------------------------------------------------------
Finished Constraint Validation : Time (s): cpu = 00:00:27 ; elapsed = 00:00:28 . Memory (MB): peak = 2667.180 ; gain = 732.902 ; free physical = 269 ; free virtual = 47611
---------------------------------------------------------------------------------
---------------------------------------------------------------------------------
Start Loading Part and Timing Information
---------------------------------------------------------------------------------
Loading part: xc7k70tfbg484-2
---------------------------------------------------------------------------------
Finished Loading Part and Timing Information : Time (s): cpu = 00:00:27 ; elapsed = 00:00:28 . Memory (MB): peak = 2667.180 ; gain = 732.902 ; free physical = 269 ; free virtual = 47611
---------------------------------------------------------------------------------
---------------------------------------------------------------------------------
Start Applying 'set_property' XDC Constraints
---------------------------------------------------------------------------------
Applied set_property KEEP_HIERARCHY = SOFT for U0. (constraint file  /data/cms/ecal/fe/SAFE/firmware/SAFE.runs/c_shift_ram_0_synth_1/dont_touch.xdc, line 9).
---------------------------------------------------------------------------------
Finished applying 'set_property' XDC Constraints : Time (s): cpu = 00:00:27 ; elapsed = 00:00:28 . Memory (MB): peak = 2667.180 ; gain = 732.902 ; free physical = 269 ; free virtual = 47611
---------------------------------------------------------------------------------
---------------------------------------------------------------------------------
Finished RTL Optimization Phase 2 : Time (s): cpu = 00:00:29 ; elapsed = 00:00:29 . Memory (MB): peak = 2667.180 ; gain = 732.902 ; free physical = 265 ; free virtual = 47587
---------------------------------------------------------------------------------
---------------------------------------------------------------------------------
Start RTL Component Statistics 
---------------------------------------------------------------------------------
---------------------------------------------------------------------------------
Finished RTL Component Statistics 
---------------------------------------------------------------------------------
---------------------------------------------------------------------------------
Start Part Resource Summary
---------------------------------------------------------------------------------
Part Resources:
DSPs: 240 (col length:80)
BRAMs: 270 (col length: RAMB18 80 RAMB36 40)
---------------------------------------------------------------------------------
Finished Part Resource Summary
---------------------------------------------------------------------------------
---------------------------------------------------------------------------------
Start Cross Boundary and Area Optimization
---------------------------------------------------------------------------------
WARNING: [Synth 8-7129] Port a[3] in module c_shift_ram_v12_0_17_legacy is either unconnected or has no load
WARNING: [Synth 8-7129] Port a[2] in module c_shift_ram_v12_0_17_legacy is either unconnected or has no load
WARNING: [Synth 8-7129] Port a[1] in module c_shift_ram_v12_0_17_legacy is either unconnected or has no load
WARNING: [Synth 8-7129] Port a[0] in module c_shift_ram_v12_0_17_legacy is either unconnected or has no load
WARNING: [Synth 8-7129] Port ce in module c_shift_ram_v12_0_17_legacy is either unconnected or has no load
WARNING: [Synth 8-7129] Port aclr in module c_shift_ram_v12_0_17_legacy is either unconnected or has no load
WARNING: [Synth 8-7129] Port aset in module c_shift_ram_v12_0_17_legacy is either unconnected or has no load
WARNING: [Synth 8-7129] Port ainit in module c_shift_ram_v12_0_17_legacy is either unconnected or has no load
WARNING: [Synth 8-7129] Port sclr in module c_shift_ram_v12_0_17_legacy is either unconnected or has no load
WARNING: [Synth 8-7129] Port sset in module c_shift_ram_v12_0_17_legacy is either unconnected or has no load
WARNING: [Synth 8-7129] Port sinit in module c_shift_ram_v12_0_17_legacy is either unconnected or has no load
---------------------------------------------------------------------------------
Finished Cross Boundary and Area Optimization : Time (s): cpu = 00:00:34 ; elapsed = 00:00:35 . Memory (MB): peak = 2667.180 ; gain = 732.902 ; free physical = 552 ; free virtual = 47861
---------------------------------------------------------------------------------
---------------------------------------------------------------------------------
Start Applying XDC Timing Constraints
---------------------------------------------------------------------------------
---------------------------------------------------------------------------------
Finished Applying XDC Timing Constraints : Time (s): cpu = 00:00:41 ; elapsed = 00:00:42 . Memory (MB): peak = 2667.180 ; gain = 732.902 ; free physical = 483 ; free virtual = 47791
---------------------------------------------------------------------------------
---------------------------------------------------------------------------------
Start Timing Optimization
---------------------------------------------------------------------------------
---------------------------------------------------------------------------------
Finished Timing Optimization : Time (s): cpu = 00:00:44 ; elapsed = 00:00:45 . Memory (MB): peak = 2667.180 ; gain = 732.902 ; free physical = 506 ; free virtual = 47813
---------------------------------------------------------------------------------
---------------------------------------------------------------------------------
Start Technology Mapping
---------------------------------------------------------------------------------
---------------------------------------------------------------------------------
Finished Technology Mapping : Time (s): cpu = 00:00:49 ; elapsed = 00:00:51 . Memory (MB): peak = 2667.180 ; gain = 732.902 ; free physical = 1728 ; free virtual = 49027
---------------------------------------------------------------------------------
---------------------------------------------------------------------------------
Start IO Insertion
---------------------------------------------------------------------------------
---------------------------------------------------------------------------------
Start Flattening Before IO Insertion
---------------------------------------------------------------------------------
---------------------------------------------------------------------------------
Finished Flattening Before IO Insertion
---------------------------------------------------------------------------------
---------------------------------------------------------------------------------
Start Final Netlist Cleanup
---------------------------------------------------------------------------------
---------------------------------------------------------------------------------
Finished Final Netlist Cleanup
---------------------------------------------------------------------------------
INFO: [Synth 8-3295] tying undriven pin f1.many_clbs.link[1]_inferred:in0[159] to constant 0
INFO: [Synth 8-3295] tying undriven pin f1.many_clbs.link[1]_inferred:in0[158] to constant 0
INFO: [Synth 8-3295] tying undriven pin f1.many_clbs.link[1]_inferred:in0[157] to constant 0
INFO: [Synth 8-3295] tying undriven pin f1.many_clbs.link[1]_inferred:in0[156] to constant 0
INFO: [Synth 8-3295] tying undriven pin f1.many_clbs.link[1]_inferred:in0[155] to constant 0
INFO: [Synth 8-3295] tying undriven pin f1.many_clbs.link[1]_inferred:in0[154] to constant 0
INFO: [Synth 8-3295] tying undriven pin f1.many_clbs.link[1]_inferred:in0[153] to constant 0
INFO: [Synth 8-3295] tying undriven pin f1.many_clbs.link[1]_inferred:in0[152] to constant 0
INFO: [Synth 8-3295] tying undriven pin f1.many_clbs.link[1]_inferred:in0[151] to constant 0
INFO: [Synth 8-3295] tying undriven pin f1.many_clbs.link[1]_inferred:in0[150] to constant 0
INFO: [Synth 8-3295] tying undriven pin f1.many_clbs.link[1]_inferred:in0[149] to constant 0
INFO: [Synth 8-3295] tying undriven pin f1.many_clbs.link[1]_inferred:in0[148] to constant 0
INFO: [Synth 8-3295] tying undriven pin f1.many_clbs.link[1]_inferred:in0[147] to constant 0
INFO: [Synth 8-3295] tying undriven pin f1.many_clbs.link[1]_inferred:in0[146] to constant 0
INFO: [Synth 8-3295] tying undriven pin f1.many_clbs.link[1]_inferred:in0[145] to constant 0
INFO: [Synth 8-3295] tying undriven pin f1.many_clbs.link[1]_inferred:in0[144] to constant 0
INFO: [Synth 8-3295] tying undriven pin f1.many_clbs.link[1]_inferred:in0[143] to constant 0
INFO: [Synth 8-3295] tying undriven pin f1.many_clbs.link[1]_inferred:in0[142] to constant 0
INFO: [Synth 8-3295] tying undriven pin f1.many_clbs.link[1]_inferred:in0[141] to constant 0
INFO: [Synth 8-3295] tying undriven pin f1.many_clbs.link[1]_inferred:in0[140] to constant 0
INFO: [Synth 8-3295] tying undriven pin f1.many_clbs.link[1]_inferred:in0[139] to constant 0
INFO: [Synth 8-3295] tying undriven pin f1.many_clbs.link[1]_inferred:in0[138] to constant 0
INFO: [Synth 8-3295] tying undriven pin f1.many_clbs.link[1]_inferred:in0[137] to constant 0
INFO: [Synth 8-3295] tying undriven pin f1.many_clbs.link[1]_inferred:in0[136] to constant 0
INFO: [Synth 8-3295] tying undriven pin f1.many_clbs.link[1]_inferred:in0[135] to constant 0
INFO: [Synth 8-3295] tying undriven pin f1.many_clbs.link[1]_inferred:in0[134] to constant 0
INFO: [Synth 8-3295] tying undriven pin f1.many_clbs.link[1]_inferred:in0[133] to constant 0
INFO: [Synth 8-3295] tying undriven pin f1.many_clbs.link[1]_inferred:in0[132] to constant 0
INFO: [Synth 8-3295] tying undriven pin f1.many_clbs.link[1]_inferred:in0[131] to constant 0
INFO: [Synth 8-3295] tying undriven pin f1.many_clbs.link[1]_inferred:in0[130] to constant 0
INFO: [Synth 8-3295] tying undriven pin f1.many_clbs.link[1]_inferred:in0[129] to constant 0
INFO: [Synth 8-3295] tying undriven pin f1.many_clbs.link[1]_inferred:in0[128] to constant 0
INFO: [Synth 8-3295] tying undriven pin f1.many_clbs.link[1]_inferred:in0[127] to constant 0
INFO: [Synth 8-3295] tying undriven pin f1.many_clbs.link[1]_inferred:in0[126] to constant 0
INFO: [Synth 8-3295] tying undriven pin f1.many_clbs.link[1]_inferred:in0[125] to constant 0
INFO: [Synth 8-3295] tying undriven pin f1.many_clbs.link[1]_inferred:in0[124] to constant 0
INFO: [Synth 8-3295] tying undriven pin f1.many_clbs.link[1]_inferred:in0[123] to constant 0
INFO: [Synth 8-3295] tying undriven pin f1.many_clbs.link[1]_inferred:in0[122] to constant 0
INFO: [Synth 8-3295] tying undriven pin f1.many_clbs.link[1]_inferred:in0[121] to constant 0
INFO: [Synth 8-3295] tying undriven pin f1.many_clbs.link[1]_inferred:in0[120] to constant 0
INFO: [Synth 8-3295] tying undriven pin f1.many_clbs.link[1]_inferred:in0[119] to constant 0
INFO: [Synth 8-3295] tying undriven pin f1.many_clbs.link[1]_inferred:in0[118] to constant 0
INFO: [Synth 8-3295] tying undriven pin f1.many_clbs.link[1]_inferred:in0[117] to constant 0
INFO: [Synth 8-3295] tying undriven pin f1.many_clbs.link[1]_inferred:in0[116] to constant 0
INFO: [Synth 8-3295] tying undriven pin f1.many_clbs.link[1]_inferred:in0[115] to constant 0
INFO: [Synth 8-3295] tying undriven pin f1.many_clbs.link[1]_inferred:in0[114] to constant 0
INFO: [Synth 8-3295] tying undriven pin f1.many_clbs.link[1]_inferred:in0[113] to constant 0
INFO: [Synth 8-3295] tying undriven pin f1.many_clbs.link[1]_inferred:in0[112] to constant 0
INFO: [Synth 8-3295] tying undriven pin f1.many_clbs.link[1]_inferred:in0[111] to constant 0
INFO: [Synth 8-3295] tying undriven pin f1.many_clbs.link[1]_inferred:in0[110] to constant 0
INFO: [Synth 8-3295] tying undriven pin f1.many_clbs.link[1]_inferred:in0[109] to constant 0
INFO: [Synth 8-3295] tying undriven pin f1.many_clbs.link[1]_inferred:in0[108] to constant 0
INFO: [Synth 8-3295] tying undriven pin f1.many_clbs.link[1]_inferred:in0[107] to constant 0
INFO: [Synth 8-3295] tying undriven pin f1.many_clbs.link[1]_inferred:in0[106] to constant 0
INFO: [Synth 8-3295] tying undriven pin f1.many_clbs.link[1]_inferred:in0[105] to constant 0
INFO: [Synth 8-3295] tying undriven pin f1.many_clbs.link[1]_inferred:in0[104] to constant 0
INFO: [Synth 8-3295] tying undriven pin f1.many_clbs.link[1]_inferred:in0[103] to constant 0
INFO: [Synth 8-3295] tying undriven pin f1.many_clbs.link[1]_inferred:in0[102] to constant 0
INFO: [Synth 8-3295] tying undriven pin f1.many_clbs.link[1]_inferred:in0[101] to constant 0
INFO: [Synth 8-3295] tying undriven pin f1.many_clbs.link[1]_inferred:in0[100] to constant 0
INFO: [Synth 8-3295] tying undriven pin f1.many_clbs.link[1]_inferred:in0[99] to constant 0
INFO: [Synth 8-3295] tying undriven pin f1.many_clbs.link[1]_inferred:in0[98] to constant 0
INFO: [Synth 8-3295] tying undriven pin f1.many_clbs.link[1]_inferred:in0[97] to constant 0
INFO: [Synth 8-3295] tying undriven pin f1.many_clbs.link[1]_inferred:in0[96] to constant 0
INFO: [Synth 8-3295] tying undriven pin f1.many_clbs.link[1]_inferred:in0[95] to constant 0
INFO: [Synth 8-3295] tying undriven pin f1.many_clbs.link[1]_inferred:in0[94] to constant 0
INFO: [Synth 8-3295] tying undriven pin f1.many_clbs.link[1]_inferred:in0[93] to constant 0
INFO: [Synth 8-3295] tying undriven pin f1.many_clbs.link[1]_inferred:in0[92] to constant 0
INFO: [Synth 8-3295] tying undriven pin f1.many_clbs.link[1]_inferred:in0[91] to constant 0
INFO: [Synth 8-3295] tying undriven pin f1.many_clbs.link[1]_inferred:in0[90] to constant 0
INFO: [Synth 8-3295] tying undriven pin f1.many_clbs.link[1]_inferred:in0[89] to constant 0
INFO: [Synth 8-3295] tying undriven pin f1.many_clbs.link[1]_inferred:in0[88] to constant 0
INFO: [Synth 8-3295] tying undriven pin f1.many_clbs.link[1]_inferred:in0[87] to constant 0
INFO: [Synth 8-3295] tying undriven pin f1.many_clbs.link[1]_inferred:in0[86] to constant 0
INFO: [Synth 8-3295] tying undriven pin f1.many_clbs.link[1]_inferred:in0[85] to constant 0
INFO: [Synth 8-3295] tying undriven pin f1.many_clbs.link[1]_inferred:in0[84] to constant 0
INFO: [Synth 8-3295] tying undriven pin f1.many_clbs.link[1]_inferred:in0[83] to constant 0
INFO: [Synth 8-3295] tying undriven pin f1.many_clbs.link[1]_inferred:in0[82] to constant 0
INFO: [Synth 8-3295] tying undriven pin f1.many_clbs.link[1]_inferred:in0[81] to constant 0
INFO: [Synth 8-3295] tying undriven pin f1.many_clbs.link[1]_inferred:in0[80] to constant 0
INFO: [Synth 8-3295] tying undriven pin f1.many_clbs.link[1]_inferred:in0[79] to constant 0
INFO: [Synth 8-3295] tying undriven pin f1.many_clbs.link[1]_inferred:in0[78] to constant 0
INFO: [Synth 8-3295] tying undriven pin f1.many_clbs.link[1]_inferred:in0[77] to constant 0
INFO: [Synth 8-3295] tying undriven pin f1.many_clbs.link[1]_inferred:in0[76] to constant 0
INFO: [Synth 8-3295] tying undriven pin f1.many_clbs.link[1]_inferred:in0[75] to constant 0
INFO: [Synth 8-3295] tying undriven pin f1.many_clbs.link[1]_inferred:in0[74] to constant 0
INFO: [Synth 8-3295] tying undriven pin f1.many_clbs.link[1]_inferred:in0[73] to constant 0
INFO: [Synth 8-3295] tying undriven pin f1.many_clbs.link[1]_inferred:in0[72] to constant 0
INFO: [Synth 8-3295] tying undriven pin f1.many_clbs.link[1]_inferred:in0[71] to constant 0
INFO: [Synth 8-3295] tying undriven pin f1.many_clbs.link[1]_inferred:in0[70] to constant 0
INFO: [Synth 8-3295] tying undriven pin f1.many_clbs.link[1]_inferred:in0[69] to constant 0
INFO: [Synth 8-3295] tying undriven pin f1.many_clbs.link[1]_inferred:in0[68] to constant 0
INFO: [Synth 8-3295] tying undriven pin f1.many_clbs.link[1]_inferred:in0[67] to constant 0
INFO: [Synth 8-3295] tying undriven pin f1.many_clbs.link[1]_inferred:in0[66] to constant 0
INFO: [Synth 8-3295] tying undriven pin f1.many_clbs.link[1]_inferred:in0[65] to constant 0
INFO: [Synth 8-3295] tying undriven pin f1.many_clbs.link[1]_inferred:in0[64] to constant 0
INFO: [Synth 8-3295] tying undriven pin f1.many_clbs.link[1]_inferred:in0[63] to constant 0
INFO: [Synth 8-3295] tying undriven pin f1.many_clbs.link[1]_inferred:in0[62] to constant 0
INFO: [Synth 8-3295] tying undriven pin f1.many_clbs.link[1]_inferred:in0[61] to constant 0
INFO: [Synth 8-3295] tying undriven pin f1.many_clbs.link[1]_inferred:in0[60] to constant 0
INFO: [Common 17-14] Message 'Synth 8-3295' appears 100 times and further instances of the messages will be disabled. Use the Tcl command set_msg_config to change the current settings.
---------------------------------------------------------------------------------
Finished IO Insertion : Time (s): cpu = 00:00:57 ; elapsed = 00:00:59 . Memory (MB): peak = 2667.180 ; gain = 732.902 ; free physical = 1399 ; free virtual = 48709
---------------------------------------------------------------------------------
---------------------------------------------------------------------------------
Start Renaming Generated Instances
---------------------------------------------------------------------------------
---------------------------------------------------------------------------------
Finished Renaming Generated Instances : Time (s): cpu = 00:00:57 ; elapsed = 00:00:59 . Memory (MB): peak = 2667.180 ; gain = 732.902 ; free physical = 1399 ; free virtual = 48709
---------------------------------------------------------------------------------
---------------------------------------------------------------------------------
Start Rebuilding User Hierarchy
---------------------------------------------------------------------------------
---------------------------------------------------------------------------------
Finished Rebuilding User Hierarchy : Time (s): cpu = 00:00:57 ; elapsed = 00:00:59 . Memory (MB): peak = 2667.180 ; gain = 732.902 ; free physical = 1399 ; free virtual = 48709
---------------------------------------------------------------------------------
---------------------------------------------------------------------------------
Start Renaming Generated Ports
---------------------------------------------------------------------------------
---------------------------------------------------------------------------------
Finished Renaming Generated Ports : Time (s): cpu = 00:00:57 ; elapsed = 00:00:59 . Memory (MB): peak = 2667.180 ; gain = 732.902 ; free physical = 1399 ; free virtual = 48709
---------------------------------------------------------------------------------
---------------------------------------------------------------------------------
Start Handling Custom Attributes
---------------------------------------------------------------------------------
---------------------------------------------------------------------------------
Finished Handling Custom Attributes : Time (s): cpu = 00:00:57 ; elapsed = 00:00:59 . Memory (MB): peak = 2667.180 ; gain = 732.902 ; free physical = 1399 ; free virtual = 48709
---------------------------------------------------------------------------------
---------------------------------------------------------------------------------
Start Renaming Generated Nets
---------------------------------------------------------------------------------
---------------------------------------------------------------------------------
Finished Renaming Generated Nets : Time (s): cpu = 00:00:57 ; elapsed = 00:00:59 . Memory (MB): peak = 2667.180 ; gain = 732.902 ; free physical = 1399 ; free virtual = 48709
---------------------------------------------------------------------------------
---------------------------------------------------------------------------------
Start Writing Synthesis Report
---------------------------------------------------------------------------------

Report BlackBoxes: 
+-+--------------+----------+
| |BlackBox name |Instances |
+-+--------------+----------+
+-+--------------+----------+

Report Cell Usage: 
+------+--------+------+
|      |Cell    |Count |
+------+--------+------+
|1     |LUT1    |   160|
|2     |SRLC32E |  1280|
|3     |FDRE    |   480|
+------+--------+------+
---------------------------------------------------------------------------------
Finished Writing Synthesis Report : Time (s): cpu = 00:00:57 ; elapsed = 00:00:59 . Memory (MB): peak = 2667.180 ; gain = 732.902 ; free physical = 1399 ; free virtual = 48709
---------------------------------------------------------------------------------
Synthesis finished with 0 errors, 0 critical warnings and 12 warnings.
Synthesis Optimization Runtime : Time (s): cpu = 00:00:52 ; elapsed = 00:00:54 . Memory (MB): peak = 2667.180 ; gain = 636.855 ; free physical = 1399 ; free virtual = 48709
Synthesis Optimization Complete : Time (s): cpu = 00:00:57 ; elapsed = 00:00:59 . Memory (MB): peak = 2667.180 ; gain = 732.902 ; free physical = 1397 ; free virtual = 48707
Netlist sorting complete. Time (s): cpu = 00:00:00.02 ; elapsed = 00:00:00.03 . Memory (MB): peak = 2667.180 ; gain = 0.000 ; free physical = 1640 ; free virtual = 48950
WARNING: [Netlist 29-101] Netlist 'c_shift_ram_0' is not ideal for floorplanning, since the cellview 'c_shift_ram_v12_0_17_legacy' contains a large number of primitives.  Please consider enabling hierarchy in synthesis if you want to do floorplanning.
Netlist sorting complete. Time (s): cpu = 00:00:00 ; elapsed = 00:00:00 . Memory (MB): peak = 2667.180 ; gain = 0.000 ; free physical = 1640 ; free virtual = 48940
Synth Design complete | Checksum: e9fb76ef
111 Infos, 25 Warnings, 0 Critical Warnings and 0 Errors encountered.
synth_design completed successfully
synth_design: Time (s): cpu = 00:01:09 ; elapsed = 00:01:06 . Memory (MB): peak = 2667.180 ; gain = 1064.902 ; free physical = 1640 ; free virtual = 48940
INFO: [Common 17-2834] synth_design peak Physical Memory [PSS] (MB): overall = 1961.540; main = 1606.958; forked = 354.582
INFO: [Common 17-2834] synth_design peak Virtual Memory [VSS] (MB): overall = 4290.543; main = 2651.012; forked = 1639.531
Write ShapeDB Complete: Time (s): cpu = 00:00:00.02 ; elapsed = 00:00:00.01 . Memory (MB): peak = 2667.180 ; gain = 0.000 ; free physical = 1640 ; free virtual = 48940
INFO: [Common 17-1381] The checkpoint '/data/cms/ecal/fe/SAFE/firmware/SAFE.runs/c_shift_ram_0_synth_1/c_shift_ram_0.dcp' has been generated.
INFO: [Coretcl 2-1648] Added synthesis output to IP cache for IP c_shift_ram_0, cache-ID = 2c0c7372a36e0535
Write ShapeDB Complete: Time (s): cpu = 00:00:00.02 ; elapsed = 00:00:00.01 . Memory (MB): peak = 2675.020 ; gain = 0.000 ; free physical = 1630 ; free virtual = 48933
INFO: [Common 17-1381] The checkpoint '/data/cms/ecal/fe/SAFE/firmware/SAFE.runs/c_shift_ram_0_synth_1/c_shift_ram_0.dcp' has been generated.
INFO: [Vivado 12-24828] Executing command : report_utilization -file c_shift_ram_0_utilization_synth.rpt -pb c_shift_ram_0_utilization_synth.pb
INFO: [Common 17-206] Exiting Vivado at Fri Jul 12 09:11:30 2024...
