1690903752.365982 : FEM 9
8.268864e-01, 8.505672e-01, 
2.397628e-01, 1.991296e-01, 
6.835373e+01 4.870969e+01 7.241694e+01 5.156558e+01 
9.557541e+01 7.199863e+01 9.963862e+01 7.565531e+01 
1.227971e+02 9.069790e+01 1.268603e+02 9.478636e+01 
1.500188e+02 1.146712e+02 1.540820e+02 1.194833e+02 
1.772404e+02 1.371510e+02 1.813037e+02 1.426826e+02 
2.044621e+02 1.610281e+02 2.085253e+02 1.671277e+02 
2.316838e+02 1.845644e+02 2.357470e+02 1.914288e+02 
2.589055e+02 2.070370e+02 2.629687e+02 2.147283e+02 
2.861272e+02 2.295489e+02 2.901904e+02 2.377977e+02 
3.133488e+02 2.517242e+02 3.174121e+02 2.604624e+02 
3.405705e+02 2.731086e+02 3.446337e+02 2.825458e+02 
3.677922e+02 2.958481e+02 3.718554e+02 3.059346e+02 
3.950139e+02 3.168825e+02 3.990771e+02 3.276037e+02 
4.222356e+02 3.404289e+02 4.262988e+02 3.518740e+02 
4.494572e+02 3.664386e+02 4.535205e+02 3.784323e+02 
4.766789e+02 3.897151e+02 4.807421e+02 4.024459e+02 
5.039006e+02 4.108855e+02 5.079638e+02 4.240636e+02 
5.311223e+02 4.335869e+02 5.351855e+02 4.476914e+02 
5.583440e+02 4.537274e+02 5.624072e+02 4.682368e+02 
5.855656e+02 4.765184e+02 5.896289e+02 4.917754e+02 
6.127873e+02 4.977611e+02 6.168505e+02 5.134493e+02 
6.400090e+02 5.221233e+02 6.440722e+02 5.384999e+02 
6.672307e+02 5.438217e+02 6.712939e+02 5.610626e+02 
6.944524e+02 5.651549e+02 6.985156e+02 5.829014e+02 
7.216740e+02 5.893202e+02 7.257373e+02 6.076279e+02 
7.488957e+02 6.142327e+02 7.529589e+02 6.331372e+02 
7.761174e+02 6.339673e+02 7.801806e+02 6.535423e+02 
8.033391e+02 6.554633e+02 8.074023e+02 6.758144e+02 
8.305608e+02 6.772444e+02 8.346240e+02 6.982096e+02 
8.577824e+02 7.055931e+02 8.618457e+02 7.271745e+02 
8.850041e+02 7.241011e+02 8.890673e+02 7.462900e+02 
9.122258e+02 7.468464e+02 9.162890e+02 7.697645e+02 
9.394475e+02 7.699359e+02 9.435107e+02 7.934469e+02 
9.666692e+02 7.908990e+02 9.707324e+02 8.150048e+02 
9.938908e+02 8.110941e+02 9.979540e+02 8.356285e+02 
1.021113e+03 8.346870e+02 1.025176e+03 8.599511e+02 
1.048334e+03 8.580124e+02 1.052397e+03 8.840636e+02 
1.075556e+03 8.807316e+02 1.079619e+03 9.073769e+02 
1.102778e+03 9.038023e+02 1.106841e+03 9.311432e+02 
1.129999e+03 9.241467e+02 1.134062e+03 9.520211e+02 
1.157221e+03 9.461309e+02 1.161284e+03 9.746222e+02 
1.184443e+03 9.702282e+02 1.188506e+03 9.993225e+02 
1.211664e+03 9.887350e+02 1.215727e+03 1.018381e+03 
1.238886e+03 1.012020e+03 1.242949e+03 1.042447e+03 
1.266108e+03 1.031705e+03 1.270171e+03 1.062658e+03 
1.293329e+03 1.058933e+03 1.297393e+03 1.090577e+03 
1.320551e+03 1.080496e+03 1.324614e+03 1.098614e+03 
1.347773e+03 1.096502e+03 1.351836e+03 1.098322e+03 
1.374994e+03 1.096402e+03 1.379058e+03 1.098476e+03 
1.402216e+03 1.096717e+03 1.406279e+03 1.098555e+03 
1.429438e+03 1.096346e+03 1.433501e+03 1.098401e+03 
1.456659e+03 1.096226e+03 1.460723e+03 1.098364e+03 
1.483881e+03 1.096361e+03 1.487944e+03 1.098396e+03 
1.511103e+03 1.096440e+03 1.515166e+03 1.098346e+03 
1.538324e+03 1.096229e+03 1.542388e+03 1.098280e+03 
