1693315475.593837 : Put your comment here
6.422171e-02, 6.537186e-02, 6.388868e-02, 6.411086e-02, 6.558797e-02, 6.690304e-02, 6.503486e-02, 6.496779e-02, 6.661499e-02, 6.404196e-02, 6.504695e-02, 6.651405e-02, 
4.719336e-02, 6.167765e-02, 5.877454e-02, 5.321424e-02, 5.624743e-02, 5.463641e-02, 5.170531e-02, 7.217087e-02, 6.529697e-02, 7.126423e-02, 6.247900e-02, 5.920608e-02, 
-1.374529e+02 -8.716286e+00 -1.425226e+02 -9.028897e+00 -1.591739e+02 -1.009888e+01 -1.846718e+02 -1.175097e+01 -1.889883e+02 -1.200904e+01 -3.202324e+02 -2.120694e+01 -1.607522e+02 -1.021015e+01 -3.377641e+02 -2.184226e+01 -3.398753e+02 -2.247295e+01 -3.184236e+02 -2.043932e+01 -2.979730e+02 -1.939377e+01 -2.989883e+02 -1.983223e+01 
1.347639e+02 8.652660e+00 1.296942e+02 8.742826e+00 1.130429e+02 7.316679e+00 8.754500e+01 5.785854e+00 8.322847e+01 5.802443e+00 -4.801561e+01 -3.073067e+00 1.114646e+02 7.390805e+00 -6.554731e+01 -4.206416e+00 -6.765848e+01 -4.334581e+00 -4.620680e+01 -2.952873e+00 -2.575624e+01 -1.648352e+00 -2.677155e+01 -1.712165e+00 
4.069807e+02 2.625701e+01 4.019110e+02 2.683039e+01 3.852597e+02 2.483839e+01 3.597618e+02 2.334542e+01 3.554453e+02 2.388984e+01 2.242012e+02 1.525584e+01 3.836814e+02 2.534535e+01 2.066695e+02 1.368020e+01 2.045583e+02 1.394959e+01 2.260100e+02 1.455918e+01 2.464606e+02 1.617898e+01 2.454452e+02 1.654906e+01 
6.791975e+02 4.380003e+01 6.741278e+02 4.473750e+01 6.574765e+02 4.238380e+01 6.319786e+02 4.088817e+01 6.276621e+02 4.189258e+01 4.964180e+02 3.358054e+01 6.558982e+02 4.315007e+01 4.788863e+02 3.146958e+01 4.767751e+02 3.210391e+01 4.982268e+02 3.212896e+01 5.186774e+02 3.393225e+01 5.176620e+02 3.469598e+01 
9.514143e+02 6.169776e+01 9.463446e+02 6.294513e+01 9.296933e+02 6.019782e+01 9.041954e+02 5.879392e+01 8.998789e+02 6.007957e+01 7.686348e+02 5.206682e+01 9.281150e+02 6.123081e+01 7.511031e+02 4.949951e+01 7.489919e+02 5.055550e+01 7.704436e+02 4.985929e+01 7.908942e+02 5.204025e+01 7.898788e+02 5.317108e+01 
1.223631e+03 7.893065e+01 1.218561e+03 8.053380e+01 1.201910e+03 7.738372e+01 1.176412e+03 7.608748e+01 1.172096e+03 7.776857e+01 1.040852e+03 7.014333e+01 1.200332e+03 7.881620e+01 1.023320e+03 6.714305e+01 1.021209e+03 6.856457e+01 1.042660e+03 6.724021e+01 1.063111e+03 6.962144e+01 1.062096e+03 7.118503e+01 
1.495848e+03 9.621167e+01 1.490778e+03 9.821531e+01 1.474127e+03 9.463208e+01 1.448629e+03 9.340859e+01 1.444312e+03 9.548219e+01 1.313068e+03 8.845553e+01 1.472549e+03 9.628872e+01 1.295537e+03 8.475315e+01 1.293426e+03 8.666116e+01 1.314877e+03 8.459323e+01 1.335328e+03 8.736542e+01 1.334312e+03 8.929593e+01 
1.768065e+03 1.139048e+02 1.762995e+03 1.163292e+02 1.746344e+03 1.123547e+02 1.720846e+03 1.110808e+02 1.716529e+03 1.137087e+02 1.585285e+03 1.067715e+02 1.744765e+03 1.145032e+02 1.567753e+03 1.025479e+02 1.565642e+03 1.049159e+02 1.587094e+03 1.021104e+02 1.607545e+03 1.051541e+02 1.606529e+03 1.074901e+02 
2.040281e+03 1.313682e+02 2.035212e+03 1.341100e+02 2.018560e+03 1.297674e+02 1.993063e+03 1.284858e+02 1.988746e+03 1.315035e+02 1.857502e+03 1.248540e+02 2.016982e+03 1.319733e+02 1.839970e+03 1.201306e+02 1.837859e+03 1.229212e+02 1.859311e+03 1.195085e+02 1.879761e+03 1.228652e+02 1.878746e+03 1.254846e+02 
2.312498e+03 1.489857e+02 2.307429e+03 1.518365e+02 2.290777e+03 1.470696e+02 2.265279e+03 1.459892e+02 2.260963e+03 1.504218e+02 2.129719e+03 1.431462e+02 2.289199e+03 1.496736e+02 2.112187e+03 1.379535e+02 2.110076e+03 1.411404e+02 2.131528e+03 1.369424e+02 2.151978e+03 1.406677e+02 2.150963e+03 1.436110e+02 
2.584715e+03 1.664707e+02 2.579645e+03 1.696916e+02 2.562994e+03 1.641251e+02 2.537496e+03 1.635047e+02 2.533180e+03 1.672423e+02 2.401936e+03 1.613272e+02 2.561416e+03 1.673978e+02 2.384404e+03 1.557712e+02 2.382293e+03 1.593200e+02 2.403744e+03 1.544503e+02 2.424195e+03 1.584047e+02 2.423180e+03 1.618849e+02 
2.856932e+03 1.843921e+02 2.851862e+03 1.872094e+02 2.835211e+03 1.816022e+02 2.809713e+03 1.807134e+02 2.805396e+03 1.843053e+02 2.674152e+03 1.794064e+02 2.833633e+03 1.842921e+02 2.656621e+03 1.731905e+02 2.654509e+03 1.773279e+02 2.675961e+03 1.718580e+02 2.696412e+03 1.759281e+02 2.695396e+03 1.797883e+02 
3.129149e+03 2.019176e+02 3.124079e+03 2.052345e+02 3.107428e+03 1.992688e+02 3.081930e+03 1.984000e+02 3.077613e+03 2.030432e+02 2.946369e+03 1.979030e+02 3.105849e+03 2.028991e+02 2.928837e+03 1.912133e+02 2.926726e+03 1.958387e+02 2.948178e+03 1.895449e+02 2.968629e+03 1.940293e+02 2.967613e+03 1.981432e+02 
3.401365e+03 2.203501e+02 3.396296e+03 2.228675e+02 3.379644e+03 2.164483e+02 3.354147e+03 2.157137e+02 3.349830e+03 2.200257e+02 3.218586e+03 2.158303e+02 3.378066e+03 2.203668e+02 3.201054e+03 2.086454e+02 3.198943e+03 2.137220e+02 3.220395e+03 2.067501e+02 3.240845e+03 2.115250e+02 3.239830e+03 2.160068e+02 
3.673582e+03 2.354493e+02 3.668513e+03 2.404491e+02 3.651861e+03 2.337105e+02 3.626363e+03 2.330219e+02 3.622047e+03 2.383365e+02 3.490803e+03 2.337563e+02 3.650283e+03 2.378699e+02 3.473271e+03 2.261372e+02 3.471160e+03 2.315994e+02 3.492612e+03 2.239808e+02 3.513062e+03 2.289464e+02 3.512047e+03 2.338503e+02 
3.945799e+03 2.535269e+02 3.940729e+03 2.582586e+02 3.924078e+03 2.510954e+02 3.898580e+03 2.504939e+02 3.894264e+03 2.561159e+02 3.763020e+03 2.520165e+02 3.922500e+03 2.557218e+02 3.745488e+03 2.438336e+02 3.743377e+03 2.497706e+02 3.764828e+03 2.414598e+02 3.785279e+03 2.467271e+02 3.784264e+03 2.519340e+02 
4.218016e+03 2.709183e+02 4.212946e+03 2.760218e+02 4.196295e+03 2.683976e+02 4.170797e+03 2.678295e+02 4.166480e+03 2.740380e+02 4.035236e+03 2.701560e+02 4.194717e+03 2.733768e+02 4.017705e+03 2.613479e+02 4.015593e+03 2.677720e+02 4.037045e+03 2.586542e+02 4.057496e+03 2.641762e+02 4.056480e+03 2.699443e+02 
4.490233e+03 2.884378e+02 4.485163e+03 2.938448e+02 4.468512e+03 2.857606e+02 4.443014e+03 2.852357e+02 4.438697e+03 2.918009e+02 4.307453e+03 2.882656e+02 4.466933e+03 2.909069e+02 4.289921e+03 2.789468e+02 4.287810e+03 2.858475e+02 4.309262e+03 2.760018e+02 4.329713e+03 2.818987e+02 4.328697e+03 2.879921e+02 
4.762449e+03 3.058712e+02 4.757380e+03 3.115064e+02 4.740728e+03 3.030780e+02 4.715231e+03 3.026687e+02 4.710914e+03 3.095275e+02 4.579670e+03 3.065617e+02 4.739150e+03 3.085221e+02 4.562138e+03 2.967675e+02 4.560027e+03 3.040973e+02 4.581479e+03 2.934931e+02 4.601929e+03 2.996475e+02 4.600914e+03 3.061776e+02 
5.034666e+03 3.233342e+02 5.029597e+03 3.291985e+02 5.012945e+03 3.204250e+02 4.987447e+03 3.200689e+02 4.983131e+03 3.274061e+02 4.851887e+03 3.246007e+02 5.011367e+03 3.262532e+02 4.834355e+03 3.142984e+02 4.832244e+03 3.220481e+02 4.853696e+03 3.108190e+02 4.874146e+03 3.171702e+02 4.873131e+03 3.241308e+02 
5.306883e+03 3.408817e+02 5.301813e+03 3.472225e+02 5.285162e+03 3.379324e+02 5.259664e+03 3.377142e+02 5.255348e+03 3.453286e+02 5.124104e+03 3.431181e+02 5.283584e+03 3.441966e+02 5.106572e+03 3.322259e+02 5.104461e+03 3.404750e+02 5.125912e+03 3.285093e+02 5.146363e+03 3.352538e+02 5.145348e+03 3.425611e+02 
5.579100e+03 3.584768e+02 5.574030e+03 3.651282e+02 5.557379e+03 3.554353e+02 5.531881e+03 3.551546e+02 5.527564e+03 3.633711e+02 5.396320e+03 3.613165e+02 5.555801e+03 3.619293e+02 5.378789e+03 3.499626e+02 5.376677e+03 3.586177e+02 5.398129e+03 3.459859e+02 5.418580e+03 3.529498e+02 5.417564e+03 3.606576e+02 
5.851317e+03 3.757250e+02 5.846247e+03 3.826864e+02 5.829596e+03 3.725785e+02 5.804098e+03 3.724097e+02 5.799781e+03 3.809062e+02 5.668537e+03 3.792798e+02 5.828017e+03 3.794473e+02 5.651005e+03 3.673867e+02 5.648894e+03 3.764830e+02 5.670346e+03 3.631804e+02 5.690796e+03 3.704445e+02 5.689781e+03 3.784902e+02 
6.123533e+03 3.933876e+02 6.118464e+03 4.006009e+02 6.101812e+03 3.901310e+02 6.076315e+03 3.900324e+02 6.071998e+03 3.989008e+02 5.940754e+03 3.975728e+02 6.100234e+03 3.971812e+02 5.923222e+03 3.852900e+02 5.921111e+03 3.947899e+02 5.942563e+03 3.807927e+02 5.963013e+03 3.883028e+02 5.961998e+03 3.967826e+02 
6.395750e+03 4.108706e+02 6.390681e+03 4.184186e+02 6.374029e+03 4.076034e+02 6.348531e+03 4.075179e+02 6.344215e+03 4.167975e+02 6.212971e+03 4.156717e+02 6.372451e+03 4.149159e+02 6.195439e+03 4.028152e+02 6.193328e+03 4.128180e+02 6.214780e+03 3.981059e+02 6.235230e+03 4.059036e+02 6.234215e+03 4.148141e+02 
6.667967e+03 4.285804e+02 6.662897e+03 4.364798e+02 6.646246e+03 4.251484e+02 6.620748e+03 4.251037e+02 6.616432e+03 4.349834e+02 6.485188e+03 4.343306e+02 6.644668e+03 4.329723e+02 6.467656e+03 4.207631e+02 6.465545e+03 4.312176e+02 6.486996e+03 4.157608e+02 6.507447e+03 4.238521e+02 6.506432e+03 4.331518e+02 
6.940184e+03 4.457817e+02 6.935114e+03 4.540243e+02 6.918463e+03 4.423721e+02 6.892965e+03 4.423058e+02 6.888648e+03 4.526502e+02 6.757404e+03 4.524123e+02 6.916885e+03 4.503338e+02 6.739873e+03 4.383140e+02 6.737761e+03 4.492652e+02 6.759213e+03 4.331877e+02 6.779664e+03 4.415156e+02 6.778648e+03 4.511659e+02 
7.212401e+03 4.633135e+02 7.207331e+03 4.717995e+02 7.190680e+03 4.597407e+02 7.165182e+03 4.598123e+02 7.160865e+03 4.703997e+02 7.029621e+03 4.705870e+02 7.189101e+03 4.680089e+02 7.012089e+03 4.560297e+02 7.009978e+03 4.673629e+02 7.031430e+03 4.505931e+02 7.051880e+03 4.591866e+02 7.050865e+03 4.692310e+02 
7.484617e+03 4.810458e+02 7.479548e+03 4.898412e+02 7.462896e+03 4.774141e+02 7.437399e+03 4.775873e+02 7.433082e+03 4.885012e+02 7.301838e+03 4.889886e+02 7.461318e+03 4.860092e+02 7.284306e+03 4.739155e+02 7.282195e+03 4.857099e+02 7.303647e+03 4.682199e+02 7.324097e+03 4.770530e+02 7.323082e+03 4.875782e+02 
7.756834e+03 4.985125e+02 7.751764e+03 5.076630e+02 7.735113e+03 4.948487e+02 7.709615e+03 4.950541e+02 7.705299e+03 5.064367e+02 7.574055e+03 5.072410e+02 7.733535e+03 5.037672e+02 7.556523e+03 4.916072e+02 7.554412e+03 5.038438e+02 7.575864e+03 4.856954e+02 7.596314e+03 4.948674e+02 7.595299e+03 5.057976e+02 
8.029051e+03 5.157481e+02 8.023981e+03 5.252571e+02 8.007330e+03 5.120699e+02 7.981832e+03 5.122689e+02 7.977516e+03 5.241608e+02 7.846271e+03 5.253095e+02 8.005752e+03 5.212988e+02 7.828740e+03 5.091884e+02 7.826629e+03 5.218128e+02 7.848080e+03 5.029298e+02 7.868531e+03 5.123830e+02 7.867516e+03 5.236988e+02 
8.301268e+03 5.333142e+02 8.296198e+03 5.431323e+02 8.279547e+03 5.294458e+02 8.254049e+03 5.297543e+02 8.249732e+03 5.419389e+02 8.118488e+03 5.435281e+02 8.277969e+03 5.390260e+02 8.100957e+03 5.268772e+02 8.098845e+03 5.399765e+02 8.120297e+03 5.203749e+02 8.140748e+03 5.301135e+02 8.139732e+03 5.418552e+02 
8.573485e+03 5.509608e+02 8.568415e+03 5.610123e+02 8.551764e+03 5.469863e+02 8.526266e+03 5.473218e+02 8.521949e+03 5.599273e+02 8.390705e+03 5.618093e+02 8.550185e+03 5.567800e+02 8.373173e+03 5.447028e+02 8.371062e+03 5.582494e+02 8.392514e+03 5.379806e+02 8.412964e+03 5.479355e+02 8.411949e+03 5.600673e+02 
8.845701e+03 5.684509e+02 8.840632e+03 5.787913e+02 8.823980e+03 5.644002e+02 8.798482e+03 5.648119e+02 8.794166e+03 5.777757e+02 8.662922e+03 5.801531e+02 8.822402e+03 5.746543e+02 8.645390e+03 5.623592e+02 8.643279e+03 5.764472e+02 8.664731e+03 5.554231e+02 8.685181e+03 5.656223e+02 8.684166e+03 5.782019e+02 
9.117918e+03 5.858716e+02 9.112848e+03 5.965879e+02 9.096197e+03 5.816528e+02 9.070699e+03 5.821248e+02 9.066383e+03 5.955488e+02 8.935139e+03 5.983480e+02 9.094619e+03 5.921675e+02 8.917607e+03 5.800207e+02 8.915496e+03 5.945183e+02 8.936947e+03 5.727245e+02 8.957398e+03 5.832021e+02 8.956383e+03 5.962579e+02 
9.390135e+03 6.036317e+02 9.385065e+03 6.146266e+02 9.368414e+03 5.992983e+02 9.342916e+03 5.998207e+02 9.338600e+03 6.137594e+02 9.207355e+03 6.167600e+02 9.366836e+03 6.101342e+02 9.189824e+03 5.979009e+02 9.187713e+03 6.128783e+02 9.209164e+03 5.903783e+02 9.229615e+03 6.011795e+02 9.228600e+03 6.145504e+02 
9.662352e+03 6.209701e+02 9.657282e+03 6.322050e+02 9.640631e+03 6.165160e+02 9.615133e+03 6.171323e+02 9.610816e+03 6.313380e+02 9.479572e+03 6.347137e+02 9.639053e+03 6.275590e+02 9.462041e+03 6.154237e+02 9.459929e+03 6.307845e+02 9.481381e+03 6.075779e+02 9.501832e+03 6.187181e+02 9.500816e+03 6.324540e+02 
9.934569e+03 6.381588e+02 9.929499e+03 6.496666e+02 9.912848e+03 6.336057e+02 9.887350e+03 6.343547e+02 9.883033e+03 6.489280e+02 9.751789e+03 6.526098e+02 9.911269e+03 6.450580e+02 9.734257e+03 6.328177e+02 9.732146e+03 6.485812e+02 9.753598e+03 6.247752e+02 9.774048e+03 6.360596e+02 9.773033e+03 6.503172e+02 
1.020679e+04 6.558288e+02 1.020172e+04 6.677774e+02 1.018506e+04 6.512817e+02 1.015957e+04 6.519854e+02 1.015525e+04 6.669354e+02 1.002401e+04 6.709662e+02 1.018349e+04 6.630704e+02 1.000647e+04 6.506717e+02 1.000436e+04 6.669701e+02 1.002581e+04 6.423222e+02 1.004627e+04 6.539886e+02 1.004525e+04 6.686272e+02 
1.047900e+04 6.734293e+02 1.047393e+04 6.856539e+02 1.045728e+04 6.686519e+02 1.043178e+04 6.694994e+02 1.042747e+04 6.848949e+02 1.029622e+04 6.892841e+02 1.045570e+04 6.807804e+02 1.027869e+04 6.684197e+02 1.027658e+04 6.850628e+02 1.029803e+04 6.598135e+02 1.031848e+04 6.717427e+02 1.031747e+04 6.867257e+02 
1.075122e+04 6.906632e+02 1.074615e+04 7.032318e+02 1.072950e+04 6.858279e+02 1.070400e+04 6.866932e+02 1.069968e+04 7.025144e+02 1.056844e+04 7.074367e+02 1.072792e+04 6.981780e+02 1.055091e+04 6.859995e+02 1.054880e+04 7.031541e+02 1.057025e+04 6.772060e+02 1.059070e+04 6.893858e+02 1.058968e+04 7.047623e+02 
1.102344e+04 7.085219e+02 1.101837e+04 7.214025e+02 1.100171e+04 7.035756e+02 1.097622e+04 7.045125e+02 1.097190e+04 7.206961e+02 1.084066e+04 7.258810e+02 1.100014e+04 7.160661e+02 1.082312e+04 7.039783e+02 1.082101e+04 7.215302e+02 1.084247e+04 6.949904e+02 1.086292e+04 7.073741e+02 1.086190e+04 7.231053e+02 
1.129565e+04 7.257648e+02 1.129058e+04 7.389801e+02 1.127393e+04 7.207652e+02 1.124843e+04 7.217863e+02 1.124412e+04 7.383505e+02 1.111287e+04 7.438585e+02 1.127235e+04 7.337462e+02 1.109534e+04 7.214682e+02 1.109323e+04 7.395089e+02 1.111468e+04 7.122209e+02 1.113513e+04 7.248694e+02 1.113412e+04 7.410749e+02 
1.156787e+04 7.433530e+02 1.156280e+04 7.568608e+02 1.154615e+04 7.382874e+02 1.152065e+04 7.393478e+02 1.151633e+04 7.563838e+02 1.138509e+04 7.624558e+02 1.154457e+04 7.515506e+02 1.136756e+04 7.392877e+02 1.136545e+04 7.577895e+02 1.138690e+04 7.297550e+02 1.140735e+04 7.426995e+02 1.140633e+04 7.593288e+02 
1.184009e+04 7.609415e+02 1.183502e+04 7.749156e+02 1.181837e+04 7.558592e+02 1.179287e+04 7.568758e+02 1.178855e+04 7.744712e+02 1.165731e+04 7.807025e+02 1.181679e+04 7.695432e+02 1.163977e+04 7.570156e+02 1.163766e+04 7.759903e+02 1.165912e+04 7.473639e+02 1.167957e+04 7.605422e+02 1.167855e+04 7.774796e+02 
1.211230e+04 7.784426e+02 1.210723e+04 7.925610e+02 1.209058e+04 7.731499e+02 1.206508e+04 7.742407e+02 1.206077e+04 7.921203e+02 1.192952e+04 7.988357e+02 1.208900e+04 7.870335e+02 1.191199e+04 7.747041e+02 1.190988e+04 7.941154e+02 1.193133e+04 7.647385e+02 1.195178e+04 7.782312e+02 1.195077e+04 7.955456e+02 
1.238452e+04 7.959432e+02 1.237945e+04 8.103315e+02 1.236280e+04 7.905430e+02 1.233730e+04 7.916839e+02 1.233298e+04 8.099097e+02 1.220174e+04 8.169931e+02 1.236122e+04 8.047841e+02 1.218421e+04 7.923649e+02 1.218210e+04 8.122020e+02 1.220355e+04 7.821793e+02 1.222400e+04 7.958114e+02 1.222298e+04 8.136538e+02 
1.265674e+04 8.131706e+02 1.265167e+04 8.276230e+02 1.263502e+04 8.078069e+02 1.260952e+04 8.090298e+02 1.260520e+04 8.276872e+02 1.247396e+04 8.350538e+02 1.263344e+04 8.220868e+02 1.245643e+04 8.099570e+02 1.245431e+04 8.302575e+02 1.247577e+04 7.994802e+02 1.249622e+04 8.135472e+02 1.249520e+04 8.316043e+02 
1.292895e+04 8.307026e+02 1.292388e+04 8.454999e+02 1.290723e+04 8.251097e+02 1.288173e+04 8.265777e+02 1.287742e+04 8.456229e+02 1.274617e+04 8.533571e+02 1.290565e+04 8.400163e+02 1.272864e+04 8.276475e+02 1.272653e+04 8.483745e+02 1.274798e+04 8.169504e+02 1.276843e+04 8.310931e+02 1.276742e+04 8.497457e+02 
1.320117e+04 8.479679e+02 1.319610e+04 8.631152e+02 1.317945e+04 8.423241e+02 1.315395e+04 8.438106e+02 1.314963e+04 8.633011e+02 1.301839e+04 8.712880e+02 1.317787e+04 8.574425e+02 1.300086e+04 8.450071e+02 1.299875e+04 8.662543e+02 1.302020e+04 8.340250e+02 1.304065e+04 8.485509e+02 1.303963e+04 8.676627e+02 
1.347339e+04 8.653669e+02 1.346832e+04 8.807172e+02 1.345167e+04 8.595460e+02 1.342617e+04 8.611001e+02 1.342185e+04 8.808738e+02 1.329061e+04 8.892636e+02 1.345009e+04 8.749532e+02 1.327308e+04 8.625167e+02 1.327096e+04 8.841685e+02 1.329242e+04 8.513595e+02 1.331287e+04 8.660048e+02 1.331185e+04 8.855059e+02 
1.374560e+04 8.827584e+02 1.374053e+04 8.985188e+02 1.372388e+04 8.770284e+02 1.369838e+04 8.785873e+02 1.369407e+04 8.987358e+02 1.356282e+04 9.076590e+02 1.372230e+04 8.926083e+02 1.354529e+04 8.802798e+02 1.354318e+04 9.023883e+02 1.356463e+04 8.687675e+02 1.358508e+04 8.838327e+02 1.358407e+04 9.036602e+02 
1.401782e+04 9.000522e+02 1.401275e+04 9.160811e+02 1.399610e+04 8.941530e+02 1.397060e+04 8.957698e+02 1.396629e+04 9.162955e+02 1.383504e+04 9.256614e+02 1.399452e+04 9.101977e+02 1.381751e+04 8.976540e+02 1.381540e+04 9.202717e+02 1.383685e+04 8.859256e+02 1.385730e+04 9.012088e+02 1.385629e+04 9.215135e+02 
1.429004e+04 9.174712e+02 1.428497e+04 9.338400e+02 1.426832e+04 9.114563e+02 1.424282e+04 9.131015e+02 1.423850e+04 9.341334e+02 1.410726e+04 9.436407e+02 1.426674e+04 9.278934e+02 1.408973e+04 9.152081e+02 1.408761e+04 9.382310e+02 1.410907e+04 9.031772e+02 1.412952e+04 9.188335e+02 1.412850e+04 9.394796e+02 
1.456225e+04 9.350438e+02 1.455718e+04 9.517410e+02 1.454053e+04 9.288767e+02 1.451504e+04 9.305909e+02 1.451072e+04 9.520340e+02 1.437947e+04 9.618626e+02 1.453895e+04 9.456134e+02 1.436194e+04 9.328890e+02 1.435983e+04 9.563653e+02 1.438128e+04 9.206485e+02 1.440173e+04 9.366180e+02 1.440072e+04 9.576679e+02 
1.483447e+04 9.526525e+02 1.482940e+04 9.695355e+02 1.481275e+04 9.463328e+02 1.478725e+04 9.481280e+02 1.478294e+04 9.699384e+02 1.465169e+04 9.801695e+02 1.481117e+04 9.630953e+02 1.463416e+04 9.506951e+02 1.463205e+04 9.745871e+02 1.465350e+04 9.382054e+02 1.467395e+04 9.543781e+02 1.467294e+04 9.758676e+02 
1.510669e+04 9.700394e+02 1.510162e+04 9.873643e+02 1.508497e+04 9.637298e+02 1.505947e+04 9.655605e+02 1.505515e+04 9.877334e+02 1.492391e+04 9.982600e+02 1.508339e+04 9.810926e+02 1.490638e+04 9.681710e+02 1.490427e+04 9.925890e+02 1.492572e+04 9.554855e+02 1.494617e+04 9.720011e+02 1.494515e+04 9.938380e+02 
1.537890e+04 9.872826e+02 1.537383e+04 1.004964e+03 1.535718e+04 9.808415e+02 1.533169e+04 9.827804e+02 1.532737e+04 1.005291e+03 1.519613e+04 1.016266e+03 1.535561e+04 9.987057e+02 1.517859e+04 9.856118e+02 1.517648e+04 1.010382e+03 1.519793e+04 9.727178e+02 1.521838e+04 9.893925e+02 1.521737e+04 1.011676e+03 
1.565112e+04 1.004867e+03 1.564605e+04 1.022801e+03 1.562940e+04 9.983521e+02 1.560390e+04 1.000157e+03 1.559959e+04 1.023258e+03 1.546834e+04 1.034429e+03 1.562782e+04 1.016352e+03 1.545081e+04 1.003217e+03 1.544870e+04 1.028458e+03 1.547015e+04 9.901476e+02 1.549060e+04 1.007135e+03 1.548959e+04 1.029797e+03 
1.592334e+04 1.022084e+03 1.591827e+04 1.040272e+03 1.590162e+04 1.015442e+03 1.587612e+04 1.017380e+03 1.587180e+04 1.040736e+03 1.574056e+04 1.052236e+03 1.590004e+04 1.033645e+03 1.572303e+04 1.020631e+03 1.572092e+04 1.046166e+03 1.574237e+04 1.007311e+03 1.576282e+04 1.024545e+03 1.576180e+04 1.047588e+03 
1.619555e+04 1.039724e+03 1.619049e+04 1.058188e+03 1.617383e+04 1.032979e+03 1.614834e+04 1.034966e+03 1.614402e+04 1.058656e+03 1.601278e+04 1.070594e+03 1.617226e+04 1.051544e+03 1.599524e+04 1.038371e+03 1.599313e+04 1.064411e+03 1.601458e+04 1.024885e+03 1.603503e+04 1.042346e+03 1.603402e+04 1.065864e+03 
1.646777e+04 1.056623e+03 1.646270e+04 1.075524e+03 1.644605e+04 1.049968e+03 1.642055e+04 1.051971e+03 1.641624e+04 1.076077e+03 1.628499e+04 1.088378e+03 1.644447e+04 1.068965e+03 1.626746e+04 1.055445e+03 1.626535e+04 1.081934e+03 1.628680e+04 1.041815e+03 1.630725e+04 1.059624e+03 1.630624e+04 1.083463e+03 
1.673999e+04 1.073794e+03 1.673492e+04 1.093122e+03 1.671827e+04 1.067090e+03 1.669277e+04 1.069011e+03 1.668845e+04 1.093767e+03 1.655721e+04 1.094643e+03 1.671669e+04 1.086127e+03 1.653968e+04 1.072709e+03 1.653757e+04 1.095165e+03 1.655902e+04 1.058985e+03 1.657947e+04 1.077033e+03 1.657845e+04 1.095517e+03 
1.701221e+04 1.090833e+03 1.700714e+04 1.094649e+03 1.699048e+04 1.084173e+03 1.696499e+04 1.085973e+03 1.696067e+04 1.095005e+03 1.682943e+04 1.094505e+03 1.698891e+04 1.097032e+03 1.681189e+04 1.089852e+03 1.680978e+04 1.094415e+03 1.683123e+04 1.075957e+03 1.685169e+04 1.094210e+03 1.685067e+04 1.095083e+03 
1.728442e+04 1.096055e+03 1.727935e+04 1.094658e+03 1.726270e+04 1.095241e+03 1.723720e+04 1.096832e+03 1.723289e+04 1.095044e+03 1.710164e+04 1.094529e+03 1.726112e+04 1.096338e+03 1.708411e+04 1.096351e+03 1.708200e+04 1.094369e+03 1.710345e+04 1.093006e+03 1.712390e+04 1.095899e+03 1.712289e+04 1.095088e+03 
